# compile vhdl design source files
vhdl xil_defaultlib  \
"../../../../MaquinaExpendedora.srcs/sources_1/new/SYNCRNZR.vhd" \
"../../../../MaquinaExpendedora.srcs/sources_1/new/coin_counter.vhd" \
"../../../../MaquinaExpendedora.srcs/sources_1/new/debouncer.vhd" \
"../../../../MaquinaExpendedora.srcs/sources_1/new/fsm.vhd" \
"../../../../MaquinaExpendedora.srcs/sources_1/new/prescaler.vhd" \
"../../../../MaquinaExpendedora.srcs/sources_1/new/timer.vhd" \
"../../../../MaquinaExpendedora.srcs/sources_1/new/top.vhd" \
"../../../../MaquinaExpendedora.srcs/sim_1/new/top_tb.vhd" \

# Do not sort compile order
nosort
